<svg xmlns="http://www.w3.org/2000/svg" viewBox="0 0 16 16">
  <path fill="#9c36b5" d="m4 0 4 4v6L4 6V0"/>
  <path fill="#be4bdb" d="M4 0 0 4v8l4 4V4"/>
  <path fill="#ae3ec9" d="M12 4v12l4-4V4l-4-4"/>
  <path fill="#862e9c" d="m8 4 4-4v6l-4 4Z"/>
</svg>
